module github.com/KiritoNya/nhentai

go 1.16

require (
	github.com/cheggaaa/pb v1.0.29
	github.com/cheggaaa/pb/v3 v3.0.8 // indirect
	golang.org/x/net v0.0.0-20210226172049-e18ecbb05110
	golang.org/x/sys v0.0.0-20210806184541-e5e7981a1069 // indirect
)
